് 
നെ സിഎസ് സിഎം മഠഠമോ സിവിൽ സപ്ലൈസ കമ്മീഷണറുടെ കാര്യാലയം 
തിരുവനന്തപുരം തീയതിഃ ഠമമഠ 
 ച  
സിവിൽ സപ്ലൈസ ഡയറകടറിൽ നിന്ന് 
െ 
ബഹുമാനപ്പെട്ട മുഖ്യമന്ത്രിയുടെ പരാതി പരിഹാര സെൽ 
സെക്രട്ടറിയറ്റ  
തിരുവനന്തപുരം 
സർഃ 
്്ചച 
വിഷയം പൊതുവിതരണം  ഉപഭോക്തൃകാര്യം ബഹുമാനപ്പെട്ട 
ു 
ത 
മുഖ്യമന്ത്രിയുടെ പരാതി പരിഹാര സെൽ ്ത മറുപടി നകുന്നത് 
സംബന്ധിച്ചം ച് 
ച വർക്കേഴസ്  േ കോംഓർഡിനേഷൻ കമ്മിറി 
സൂചന ക എഫസിഐ െ 
കൺവീനർ നകിയ പരാതി 
ങ്കജ്ജ്േങ്ജ്ങ്കജ്േചേച 
്തതം 
ച 
മേൽ സൂചനയിലെ പരാതിയിൻമേലുളള റിപ്പോർട്ട ചുവടെ ചേർക്കുന്നു 
േ 
 
മേൽ സൂചന പരാതി എഫസിഐ തൊഴിലാളികളെ സംബന്ധിച്ചുളളതാണ 
കര 
എഫസിഐ ച കേന്ദ്രസർക്കാരിന്റെ ക ഴിലുളള ഒരു പൊതുമേഖലാ 
സ്ഥാപനമായതിനാൽ ടി സ്ഥാപനത്തിനുമേൽ ഏരണപരമായ കാര്യങ്ങളിൽ സംസ്ഥാന 
സർക്കാരിന് ച ഇടപെടാൻ കഴിയാത്ത സാഹചര്യമാണെന്ന വിവരം സവിനയം 
അറിയിക്കുന്നു 
വിശ്വസതതയോടെ ച 
്  ഡയറക്ടർക്കുവേണ്ടി  
