വിവരാവകാശനിയമപ്രകാരം വിവരങ്ങൾ ലഭിക്കുന്നതിന് ം 
്ച്ച് 
വിവരാവകാശ കമ്മീഷൻ നിയമവകുപ്പ സെക്രട്ടറി കൊലം ജിലയിൽ 
മുമ്പാകെം  ക 
ച ച 
കുന്നത്തുർ താലുക്കിൽ ശൂരനാട ടക്ക പ്രവർത്തിച്ചുവരുന്ന ഗുരുകുലം കലാസമിതി 
സെക്ട്ടറി എം പ്രഭാകരൻ ബോധിപ്പിക്കുന്ന പരാതിഃ 
വിഷയം റ ഗുരുകുലം കലാസമിി ഒരു നയത്തവിദ്യാലയം സ്ഥിരഗ്രാന്റ് അനു 
വദിക്കുന്നതിനുവേണ്ടിയും ദമൗമ്രം ുഠഥ ചം ഫയൽ പുനഃപരി 
ച്രളുാ 
ശോധന നടത്തുന്നതിനും സ്ഥിരം ഗ്രാന്റ് അനുവദിക്കുന്നതിനും 
മ ഈ നയത്തവിദ്യാലയന്തിനുവേണ്ടി പത്തുലക്ഷം ഠഠമാ രുപ ആദ്യ 
ഗഡുവായി അനുവദ്ക്കുന്നതിനുവേണ്ടിയും  
ഈ അപേക്ഷ നമ്പർ ംമമംയത്നമഠഃഠടദഥ മചൽ ഡെപ്യൂട്ടി സെക്രട്ടറി ു 
നോഡൽ ഓഫീസറുടെ ഓഫീസിൽ നിന്നും താങ്കൾ ഗവർണ്ണറുടെ സെക്രട്ടറിയേറ്റിൽ 
ച്ചു ച് 
സമർപ്പിച്ചിരുന്ന നിവേദനം ആവശ്യമാഃ നടപടികൾക്കായി സാംസ്ക്കാരിക വകുപ്പ 
സെക്രട്ടറിക്ക്  അയച്ചുകൊടുത്തിട്ടുണ്ടെന്നുള്ള വിവരം അറിയിച്ചിട്ടുള്ളതാണ് ച എന്നാൽ 
 ച 
ാദമാടചൽ ട കലാസമിതികളെ ഗ്രാന്റ് ന്ൻകുന്നതിന് ലിസ്റ്റിൽ ഉൾപ്പെടുത്തിയിട്ടുള്ളതാണ് 
അതിൽ കലാസമിതിയെ ൂച് റംനഗഃ ംഗടഃ ടകപടം 
ഗുരുകുലം ഉൾപ്പെടുത്തിയിട്ടുള്ളതാണ് ം 
ശ്റനാപഠം ിടാംദ്ംംാപം്ഗഭിമമ ദനസ്നവ്ം ടമമ്മറമമം ന്ഥ്മ്റമറഗന്റയനം 
മട ച ടറ്റഓഫീസിൽ നിന്നും മഠമമഠടെ തീയതി ടറദ്ധഥഠ എന്ന സുചന 
േ 
ുച്ച ച് 
നമ്പരിൽ രജിസ്റ്റർ ചെയത ം്മാ്നഢന ്മ സ്്്ഃ കമുട രനഃ ൗന 
് ച 
മ്ന്മനടന്വടന്ൂം ചന അയച്ചുകൊടുത്ത വിവരം അറിയിച്ചിട്ടുള്ളതാണ് എന്നാൽ ഈ 
ച് 
അപേക്ഷയിന്മേൽ എന്തുകൊണ്ട നടപടിൾ സ്വീകരിക്കുന്നില്ല ടപടി സ്വീകരിക്കാത്ത 
ു്ച ം 
കാരണം ന്താണഃ ഇനി ന്ത നടപടി സീകരിക്കും 
വിശ്വാസത്തോടെ 
 എന്ന 
ശുരനാട ത സെക്രട്ടറി ം 
ംടഠമഠര ട്ൎം ടം ് 
ഗുരുകുലം പ്രഭാകരൻ ഃ ര് 
ം കലാസമിതി 
ദീം നട്ടേ ഗുരുകുലം ുൃൎ്ട്ട്ഷയച്യ് ്രക്് 
ക്ഷ്യ ഘാ ൂ്ം 
് 
് ട്ടങജ് 
ു ചം 
ശുരനാട വടക്കാ കൊല്ലം ഷ് ടഠടദ 
ം  
