പ്രേഷിതൻ 
മുനിസിപ്പൽ സെക്രട്ടറി 
പെരുമ്പാവുർ 
സ്വീകർത്താവ് ച് 
മുഖ്യമന്ത്രിയുടെ പരാതി പരിഹാര സെൽ 
തിരുവനന്തപുരം 
സർഃ 
വിഷയചം പെരുമ്പാവൂർ നഗരസഭ ്താ സാമൂഹ്യ സുരക്ഷ പെഷൻ വിഭാഗം 
േ  
വാർദ്ധ്യക ്യകാല പെൻഷൻ ലഭിക്കാത്തത് ്തത്തു ചസംബന്ധിച്ച 
 
സൂചനം അങ്ങയുടെ ആഫീസിൽ നിന്നും ഠ മഠചന ലഭിച്ച ടമമൎമ്രനമ്പർ 
പരാതി 
്േ  
സൂചനയിലേയക്ക് അങ്ങയുടെ ശ്രദ്ധ ക്ഷണിക്കുന്നു ഈ നഗരസഭിൽ നിന്നും 
വാർദ്ധക്യകാല പെഷൻ ലഭിക്കുന്നതിനായി ഠമഠടചൽ ശ്രഃ കെഎം 
 ച ൃേ േ 
കൃഷണൻകുട്ടിനായർ കരവട്ടതടത്തിൽ വീട എംംസിറോഡ് പെരുമ്പാവൂർ ന്ന വ്യക്തി 
സമർപ്പിച്ച അപേക്ഷ പരിശ്ോധിക്കുകയും ഠമമഠ മുതലുള്ള പെഷൻ കൗൺസിൽ 
ചേ ച 
പാസ്താക്കുകയും അനുമതിയ്ക്കായി ഡബിറി സെലിലേക്ക അപേക്ഷ ഡാറാ എൻട്രിി 
സ തെ ക  
നടത്തിയിട്ടുളളതുമാണ്  ഡിബിറ്റിയുടെ വിതരണ റിപ്പോർട്ട ം പരിശോധിച്ചതിൽ 
 
 
ഠടഠമഠടമ നമ്പർ ഐംഡിയായി മഠ ഓഗസ മുതൽ മഠ ഏപ്രിൽ പെഷൻ 
റേ വരെയുളള 
േ ച 
എസബിഐ അക്കൗണ്ട നമ്പർ മഠമടമകമമദഠമ വഴി വിതരണം നടത്തിയിട്ടുളളതായി 
ച 
രേഖപ്പെടുത്തൽ വന്നിട്ടുളളതായി റിപ്പോർട്ട് ചെയ്യുന്നു 
ം ച 
ച്  ചം 
പകർപ്പം ശ്രീ കെഎം കൃഷണൻകുട്ടിനായർ 
കരവട്ടതടത്തിൽ ച വട്  
 
എംസി റോഡഃ 
പെരുമ്പാവൂർംമദാഷമ 
