്ൃ 
നംംൃവപാർലമറർനിയമം നിയമ പ്രാർല വകപ്പ് 
തിരുവനന്തപുരം തീയതിഠി ഫമാ 
േ 
സേറ് ്് ക 
റ പബ്ലിക് ഇൻഫർ മേഷൻ ഓഫീസർ ജോയിന്റ് സെക്രട്ടറിഃ 
നിയമവകുപ്പ് ഗവസെക്രട്ടേറിയറ്റ് 
േ 
ുെ 
കത 
തിരുവനന്തപുരം ഫോൺ നമ്പർ ച ചക മടടഃ 
്ഃം ഗുരുകലം പ്രഭാകരൻ 
സെക്രട്ടറിഃ ഗുരുകലം കലാസമിതിഃ ശൂരനാട് വടക്ക്് 
കൊല്ലം ാ ാഠഃ ോ 
ചഃ 
സർ ച 
 
വിഷയം ഃ മാഠം പ ലെ വിവരാവകാശ നിയമ പ്രകാരം വിവരം 
് ലഭ്യമാക്കുന്നത് 
സംബന്ധിച്ച് 
സൂചന ത താങ്കളുടെ റടൃം മാഃ തീയതിയിലെ അപേക്ഷ 
് 
സൂചനയിലേയ്ക്ക് താങ്കളുടെ ശ്രദ്ധക്ഷണിക്കുന്നു അപേക്ഷയിൽ ആവശ്യപ്പെട്ടിരി 
 
ചമ്മ 
ക്ുന്ന വിവരങ്ങൾ സാസ്കാറിക കാര്യ വകുപ്പുമായി ബന്ധപ്പെട്ടതാകയാൽ താങ്കക്ക് 
നേരിട്ട് മറുപടി നൽകുന്നതിനായി പ്രസ്തുത അപേക്ഷ ആ വകപ്പിലെ സ്റ്റ്റ് പബ്ലിക് ു 
ഃ 
മമ്കമവമമ്ജ്ജമ്ക ്മമമങ്കമൎമ്വ്ക്മൎ ഘലളം മ 
േ 
ഇൻഫർ മേഷൻ ഓഫീസർക്ക് സ്രാംസ്കാരിക കകാര്യ വകപ്പഃ ഗവൺ മെന്റ് സെക്രട്ടേ 
താ 
റിയറ്റ്തിരുവനന്തപുരം കൈമാറിയിട്ടുള്ള വിവരം അറിയിക്കുന്നും ഇതു സംബന്ധിച്ച 
തുടർ നടപടികൾക്ക് പ്രസ്തുത വകുപ്പുമായി ന്ധപ്പെടേണ്ടതാണെന്നും റിയിക്കുന്നു 
വിശ്വസ്തതയോടെ 
ഛം 
തോമസ് കുട്ടി സെബാസ്റ്്യഃ 
സ്റ്റേറ്റ് പബ്ലിക് േ ഇൻഫർ മേഷൻ ഓഫീസർ കെ 
ജോയിന്റ് സെക്രട്ടറി 
ച 
ഉള്ളടക്കം ്ക പബിക് ച മേഷൻ 
സാംസ്കാരിക കാര്യ വകപ്പ് സ്റ്റ്റ് ക ഇൻഫർ 
ഓഫീസർക്ക് കത്തിെ 
അയച്ച  പകർപ്പ് 
