പ്രേഷകൻ ഃ 
ജില്ലാ കലക്ുർ 
കോഴിക്കോട് 
ദം ഃ 
സ്വീകർത്താവ് ച്ട 
 സെക്രട്ടറിഃ ം 
മുഖ്യമന്ത്രിയുടെ പ്രൈവറ്റ ഃ കകക്ര ര് 
ഗറം സെക്രട്ടറിയേറ്റ് ഏം ഭവങ് ഒൺഃ ്ഷദൃ 
തിരുവനന്തപുരം ട്ടൃഫീർ ്ദു 
സർഃ ് പഞ്ചായത്ത് കൊയിലാണ്ടി 
വിപയം പൊതുജന പരാതി ം പുതിയോട്ടിൽ ദാമോദരൻ ചെങ്ങോട്ടുകാവ 
ാ 
ക് നടപടി 
മുഖ്യമന്ത്രി മുഖേനെ സമർപ്പിച്ച അപേക്ഷഃ ബാങ്കിൻെറ ജപ്തി 
താലൂക്ക് എന്നവർ സംബന്ധിച്ച് 
ഒഴിവാക്കണമ്െന്നും ഗവസാമ്പത്തിക സഹായം അനുവദിക്കണമെന്നതും 
ാ 
മുഖ്യമന്ത്രി മുമ്പാകെ ്മറഠഃ ന് സമർപ്പിച്ച 
സൂചന  ന പുതിയോട്ടിൽ ദാമോദരൻ എന്നവർ 
പേക്ഷം 
ുെ നമ്പർ റിപ്പോർട്ട് 
മ്ര കൊയിലാണ്ടി തഹസിൽദാരുടെ മമമാര ലെ എച്ചീ ചചഠദദ 
്ര ്ടടിജ്ജ് 
ക്ഷണിക്കുന്നു ശ്രീദാമോദരൻ പൃതിയോട്ടിൽ 
മേൽ സൂചനയിലേക്ക് അങ്ങയുടെ മഹനീയ ശ്രദ്ധ 
ആളാണെന്നും മകൻ 
ച താൻ ം കടുംബത്തിൽപ്പെട്ട 
ചെങ്ങോട്ട് ാറ കൊയിലാണ്ടി ന്നവർ 
ഗൾഫിൽ നിന്ന് മരണപ്പെട്ടു റെന്നും ാ ബാങ്ിൽ  വം രൂപ ബാധ്യതയുണ്ടെന്നും 
ജോദിയിദിരിക്കെ ലോണിനേലുള്ള ു്തി നടപടികൾ ഒഴിവാക്കി 
കനെ ആശ്രയിച്ചായിരുന്നു ലോൺ അടച്ചിരുന്നതെന്നും 
തരണ്ഠമന്നും ആവശ്യപ്പെട്ടുകൊണ്ട് 
തരണമെന്നും ഗവവൺനെൻറിൽ നിന്നും ധനസഹായം അനുവദിച്ചു നടത്തിയ 
അപേക്ഷയിൽ കൊയിലാണ്ടി തഹസിൽദാർ മഖനെ 
മുഖ്യമന്ത്രിമുഖേനെ സമർപ്പിച്ച മകൻെറെ പേരിലുള്ള ച മ 
അന്വേഷണത്തിൽ ടിയാൻെറ കുടുംബം ന റിഭാഗത്തിപ്പെട്ട ആളാണെന്നും 
നിർമ്മാണത്തിന് ഥേ ാങ്കിൽ നിന്നും വന വായ്ച എടുത്തിരുന്നുവെന്നും 
സെറ് ഭൂമിയിൽ ീട് ചെയ്തിട്ടുണ്ട് ഇപ്പോൾ 
ഗൺറിൽ നിന്നും മരണപ്പടുന്നതു രെ കൃത്യമായി ലോൺ അടച്ചിരുന്നുവെന്നും റിപ്പോർട്ടു 
കൻെറെ അഭാവത്തിൽ ലോൺ തിരിച്ചടയ്ക്കുക എന്നത് ളരെ 
ര ഘകഷം രൂപയുടെ കടബാധ്യത ഉണ്ടെന്നും 
ധനസഹായത്തിനുള്ള അപകഷഃ പരിഗണിക്കാവുന്നതാണെന്നു റിപ്പോർട്ട് ചെയ്തിട്ടുണ്ട് 
പ്രയാസകരമാണെന്നാം സ്വീകരിക്കുന്നതിനായി ാപക്ഷ ഇതോടൊപ്പം തിരികെ 
ധനസഹായത്തിനുള്ള അഭപക്ഷയിന്മേൽ നടപടി 
സമർപ്പിക്കുന്നു വിശ്വസ്തതയോടെ 
ചല്ക എഃ യ 
