ശ്രീകാര്യം പോലീസ് സ്റ്റേഷൻ 
തയതി മഃ ഠ  
പ്രേഷിതൻ 
പോലീസ് സബ്ബ് ഇൻസ്പെക്ൂർ 
ശ്രീകാര്യം പോലീസ് സ്റ്റേഷൻ 
തിരുവനന്തപുരം സിറ്റി 
സ്വീകർത്താവ് 
പോലീസ് ഇൻസ്പെക്ടൂർ 
മെഡിക്കൽ കോളേജ് 
തിരുവനന്തപുരം സിറ്റി 
സർഃ 
വിഷയം ശ്രീഃ ശ്രീരാഗകുമാർഃ കരിയച്ചിറപുത്തൻ പുരം മുവടൂർഗഠഃ 
മൂവാറ്റുപുഴം ബഹുകേരളാ മുഖ്യമന്ത്രിയ്ക്ക് നകിയ 
പരാതിയിന്മേൽ റിപ്പോർട്ട് സമർപ്പിക്കുന്നത്സംബന്ധിച്ച് ാ 
സൂചന ഃ ഃ ൃ ഠമം ഃ റഃ 
മേൽ വിഷയത്തിലേയ്ക്കും സൂചനയിലേയ്ക്കും അങ്ങയുടെ ശ്രദ്ധ ക്ഷണിച്ചുകൊള്ളുന്നു 
ശ്രീീ ശ്രീരാഗകുമാർ 
കരിയച്ചിറപുത്തൻ പുരം മുവൂർനഠഃ മൂവാറ്റപുഴ ൂ 
ം 
എന്നയാൾ മ െ ോ ാം പ്രതിയായി ശ്രീകാര്യം പോലീസ് സ്റ്റേഷനിൽ രജിസ്റ്റർ ചെയ്തിട്ടുള്ള 
ക്രം ചദഃ ടദാഃ പോദമദദമ നാ  ടം ദറഃ ാേ ം്  കഃ 
കേസിൽ 
പ്രകാരമുള്ള സസ നിന്നും ട്ടിയാനെ ഒഴിവാക്കുന്നതുമായി ബന്ധപ്പെട്ടുള്ള ഗലമദ് 
ഉ്ര്ഠന്നം തയ്യാറാക്കി മേലധികാരികൾക്ക് അയച്ചിട്ടുള്ളതാകുന്നു 
ട്ി റിപ്പോർട്ട് അനന്തര നടപടികൾക്കായി സമർപ്പിച്ചുകൊള്ളുന്നു 
ചൎച ൃ്്ം 
ീഃ ൃം 
പം ് 
പോലീസ് സബ്ബ് ഇൻസ്പെക്ൂർ 
ശ്രീകാര്യം പോലീസ ം സ്റ്റേഷൻ 
