പ്രേഷിതർ 
ീഃ എൻ കം ശങ്കരൻ 
റിട്ടക്ലാർക്ക്  
 ൃചം 
സംസക്യതം ഹൈസകൂൾ വട്ടോളി 
ഫോൺ ടാടഠദഠ ദം ്ഃ ് ടഠേ ഭ്്്ച ്്ചഗ 
ട 
ൃം 
മഃം കം കുമാരൻ ക്ച്്ംഗഴ് 
റിട്ടക്ലാർക്ക് െ 
ആർഎൻഎംഹൈസകൂൾ ച നരിപ്പറ്റ ദപപിചമകഗം ചല്ം 
ഫോൺ ടടമഠടമടം റം  റട്ഃ ീംദപ്കഛേപി 
േ 
 ചഭദ്ധ് ്മ ടളും  
േ 
സ്വീകർത്താവ് ച 
ശ്രഃ പിണറായി വിജയൻ 
ബഹുകേരള മുഖ്യമന്ത്രി ്ച്ം 
ം 
സർഃ 
സൂചന മം നമ്പർ മഠ്ര മാാഠദമഠട്രേ ക ം പ്ം ടദ ം ഃ മഠഠടമഠി 
വിഷയം ്ഃ ബഹു ഹൈക്കോടതി വിധിയുടെ അടിസ്ഥാനത്തിൽ ശമ്പളം 
 ം ് ച 
പുനർനിർണ്ണയം ചെയത തരുന്നതിനുള്ള ഉത്തരവ്തീർപ്പ കൽപ്പിക്കു 
േ ച 
ന്നതിനുള്ള കാലതാമസം പരിഹരിച്ച് തരുന്നതിനുള്ള അപേക്ഷ സംബന്ധിച്ച് 
മേൽസൂചനയിലെ ബഹുഃ കേരള ഹൈക്കോടതിയുടെ വിധിയുടെ അടിസ്ഥാനത്തിൽ ങ്ങളുടെ 
ഏ 
ുചു ച ച്ച  ്് 
ലാന്റ്റ ഗ്രേഡ സർവ്വീസ് ക്ലാർക്കിന്റെ സർവ്വീസിനോട് കൂട്ടിചേർത്ത് ഗ്രേഡുകൾ അനുവദിച്ച ആനു 
് 
കുല്യം ലഭിക്കുന്നതിന് ഫടകര ജില്ല വിദ്യാഭ്യാസ ഓഫീസറുടെ ശമ്പള പുനർനിർണ്ണയ ഉത്തരവിന്റെ 
ഃ  ചചെ 
അംഗീകാരത്തോടഃ പെൻഷൻ പുനർനിർണ്ണയം ചെയത തരുന്നതിന് വേണ്ടി ഞങ്ങളുടെ പ്രധാനാ 
ം 
ദ്ധ്യാപകർ മുഖേന ഒരു പ്രപ്പോസൽ പെൻഷൻ പുനർനിർണ്ണയ അധികാരിയായ കേഴിക്കോട് വിദ്യാ 
ച്േ ഃ 
ഭ്യാസ ഉപഡയറക്ടൂർക്ക് മാഃ ഡിസംബർ മഃ ം തിയ്യതി സേവനപുസതകം സഹിതം സമർപ്പിച്ചിരുന്നു 
്  
എന്നാൽ പ്രസതുത അപേക്ഷ ഹൈക്കോടതി വിധികൾ നടപ്പിലാക്കുന്നതിന് സർക്കാരിന്റെ 
ഃ   
അനു മതി കൂടി വേണമെന്ന പറഞ്ഞ കോഴിക്കോട് ംാഃ തിരു വനന്തപുരം പൊതു 
ം ്ചും ചെ 
വിദ്യാഭ്യാസ വകുപ്പിലേക്ക് അയച്ച കൊടുത്തിട്ട ഒരുവർഷവുര മാസവും കഴിഞ്ഞു പ്രസതുത ഫയൽ 
പൊതുവിദ്യാഭ്യാസ വകുപ്പിന്റെ ദ സെക്ഷനിൽ  മാര ം ഠറഃ ആയിരുന്നു ഇതേവരേയും 
ചച ്ച് 
ഉള്ളത നിരവധി പ്രാവശ്യം ഫോൺ മുഖേനയും നേരിട്ടും സെക്ഷനിലും ബന്ധപ്പെട്ടിരുന്നു എന്നാൽ 
ഃ ച് 
ഇപ്പോൾ ഫയൽ ഫിനാൻസവകുപ്പിലെ  മദ ഭറമമ ആയിട്ടാണ് ഫിനാസ് വകുപ്പിൽ 
ച് ുച്ചം  
കിടക്കുന്നത് ന്ന പം സെകഷനിൽ നിന്നും ഫോൺ മുഖേന അറിയുവാൻ കഴിഞ്ഞു 
ച ്ച 
ആയതിനാൽ താങ്കൾ ഈ അപേക്ഷക്ക ഫഎത്രയും പെട്ടെന്ന ഒരു പരിഹാരമുണ്ടാക്കി 
ചഃ 
ആനുകൂല്യം ലഭ്യമാക്കുന്നതിനുള്ള നടപടി സ്വീകരിക്കണമെന്ന അപേക്ഷിക്കുന്നു 
ചം 
എന്ന 
റ എൻ കെ ശങ്കരൻ 
റിട്ട ക്ലാർക്ക് ു്  
് ് ്ച 
ണമഭിഏഠ്്ന 
് 
മ കെ കുമാരൻ ഗ്്് 
ാ 
